   0  $accept : file_input $end

   1  file_input :
   2             | aux2

   3  aux2 : NEWLINE
   4       | stmt
   5       | aux2 NEWLINE
   6       | aux2 stmt

   7  stmt : simple_stmt
   8       | compound_stmt

   9  simple_stmt : small_stmt NEWLINE
  10              | small_stmt PYCOMA NEWLINE

  11  small_stmt : expr_stmt
  12             | print_stmt

  13  expr_stmt : test
  14            | test EQ test
  15            | test augassign test

  16  augassign : MASIGUAL
  17            | MENOSIGUAL

  18  print_stmt : PRINT test

  19  compound_stmt : if_stmt
  20                | while_stmt

  21  if_stmt : IF test DOSPUNTOS suite
  22          | IF test DOSPUNTOS suite ELSE DOSPUNTOS suite
  23          | IF test DOSPUNTOS suite aux20 ELSE DOSPUNTOS suite

  24  aux20 : ELIF test DOSPUNTOS suite
  25        | ELIF test DOSPUNTOS suite aux20

  26  while_stmt : WHILE test DOSPUNTOS suite

  27  suite : simple_stmt
  28        | NEWLINE INDENT aux00 DEDENT

  29  aux00 : stmt
  30        | aux00 stmt

  31  test : or_test
  32       | PI test PD

  33  or_test : and_test
  34          | and_test aux5

  35  aux5 : OR and_test
  36       | aux5 OR and_test

  37  and_test : not_test
  38           | not_test aux6

  39  aux6 : AND not_test
  40       | aux6 AND not_test

  41  not_test : NOT not_test
  42           | comparison

  43  comparison : expr
  44             | expr aux7

  45  aux7 : comp_op expr
  46       | comp_op expr aux7

  47  comp_op : MENOR
  48          | MAYOR
  49          | IGUALIGUAL
  50          | MAYORIGUAL
  51          | MENORIGUAL
  52          | DISTINTO
  53          | IN
  54          | NOTIN

  55  expr : term
  56       | term aux8

  57  aux8 : MAS term
  58       | MENOS term
  59       | MAS term aux8
  60       | MENOS term aux8

  61  term : factor
  62       | factor aux9

  63  aux9 : POR factor
  64       | DIVENTERA factor
  65       | MODULO factor
  66       | DIV factor
  67       | aux9 POR factor
  68       | aux9 DIVENTERA factor
  69       | aux9 MODULO factor
  70       | aux9 DIV factor

  71  factor : MAS factor
  72         | MENOS factor
  73         | power

  74  power : atom
  75        | atom POTENCIA factor

  76  atom : IDENTIFIER
  77       | ENTERO
  78       | CADENA
  79       | REAL
  80       | BOOLEAN

state 0
	$accept : . file_input $end  (0)
	file_input : .  (1)

	NEWLINE  shift 1
	IDENTIFIER  shift 2
	ENTERO  shift 3
	REAL  shift 4
	CADENA  shift 5
	BOOLEAN  shift 6
	PRINT  shift 7
	MAS  shift 8
	MENOS  shift 9
	PI  shift 10
	IF  shift 11
	WHILE  shift 12
	NOT  shift 13
	$end  reduce 1

	file_input  goto 14
	aux2  goto 15
	stmt  goto 16
	simple_stmt  goto 17
	compound_stmt  goto 18
	small_stmt  goto 19
	expr_stmt  goto 20
	print_stmt  goto 21
	test  goto 22
	if_stmt  goto 23
	while_stmt  goto 24
	or_test  goto 25
	and_test  goto 26
	not_test  goto 27
	comparison  goto 28
	expr  goto 29
	term  goto 30
	factor  goto 31
	power  goto 32
	atom  goto 33


state 1
	aux2 : NEWLINE .  (3)

	.  reduce 3


state 2
	atom : IDENTIFIER .  (76)

	.  reduce 76


state 3
	atom : ENTERO .  (77)

	.  reduce 77


state 4
	atom : REAL .  (79)

	.  reduce 79


state 5
	atom : CADENA .  (78)

	.  reduce 78


state 6
	atom : BOOLEAN .  (80)

	.  reduce 80


state 7
	print_stmt : PRINT . test  (18)

	IDENTIFIER  shift 2
	ENTERO  shift 3
	REAL  shift 4
	CADENA  shift 5
	BOOLEAN  shift 6
	MAS  shift 8
	MENOS  shift 9
	PI  shift 10
	NOT  shift 13
	.  error

	test  goto 34
	or_test  goto 25
	and_test  goto 26
	not_test  goto 27
	comparison  goto 28
	expr  goto 29
	term  goto 30
	factor  goto 31
	power  goto 32
	atom  goto 33


state 8
	factor : MAS . factor  (71)

	IDENTIFIER  shift 2
	ENTERO  shift 3
	REAL  shift 4
	CADENA  shift 5
	BOOLEAN  shift 6
	MAS  shift 8
	MENOS  shift 9
	.  error

	factor  goto 35
	power  goto 32
	atom  goto 33


state 9
	factor : MENOS . factor  (72)

	IDENTIFIER  shift 2
	ENTERO  shift 3
	REAL  shift 4
	CADENA  shift 5
	BOOLEAN  shift 6
	MAS  shift 8
	MENOS  shift 9
	.  error

	factor  goto 36
	power  goto 32
	atom  goto 33


state 10
	test : PI . test PD  (32)

	IDENTIFIER  shift 2
	ENTERO  shift 3
	REAL  shift 4
	CADENA  shift 5
	BOOLEAN  shift 6
	MAS  shift 8
	MENOS  shift 9
	PI  shift 10
	NOT  shift 13
	.  error

	test  goto 37
	or_test  goto 25
	and_test  goto 26
	not_test  goto 27
	comparison  goto 28
	expr  goto 29
	term  goto 30
	factor  goto 31
	power  goto 32
	atom  goto 33


state 11
	if_stmt : IF . test DOSPUNTOS suite  (21)
	if_stmt : IF . test DOSPUNTOS suite ELSE DOSPUNTOS suite  (22)
	if_stmt : IF . test DOSPUNTOS suite aux20 ELSE DOSPUNTOS suite  (23)

	IDENTIFIER  shift 2
	ENTERO  shift 3
	REAL  shift 4
	CADENA  shift 5
	BOOLEAN  shift 6
	MAS  shift 8
	MENOS  shift 9
	PI  shift 10
	NOT  shift 13
	.  error

	test  goto 38
	or_test  goto 25
	and_test  goto 26
	not_test  goto 27
	comparison  goto 28
	expr  goto 29
	term  goto 30
	factor  goto 31
	power  goto 32
	atom  goto 33


state 12
	while_stmt : WHILE . test DOSPUNTOS suite  (26)

	IDENTIFIER  shift 2
	ENTERO  shift 3
	REAL  shift 4
	CADENA  shift 5
	BOOLEAN  shift 6
	MAS  shift 8
	MENOS  shift 9
	PI  shift 10
	NOT  shift 13
	.  error

	test  goto 39
	or_test  goto 25
	and_test  goto 26
	not_test  goto 27
	comparison  goto 28
	expr  goto 29
	term  goto 30
	factor  goto 31
	power  goto 32
	atom  goto 33


state 13
	not_test : NOT . not_test  (41)

	IDENTIFIER  shift 2
	ENTERO  shift 3
	REAL  shift 4
	CADENA  shift 5
	BOOLEAN  shift 6
	MAS  shift 8
	MENOS  shift 9
	NOT  shift 13
	.  error

	not_test  goto 40
	comparison  goto 28
	expr  goto 29
	term  goto 30
	factor  goto 31
	power  goto 32
	atom  goto 33


state 14
	$accept : file_input . $end  (0)

	$end  accept


state 15
	file_input : aux2 .  (2)
	aux2 : aux2 . NEWLINE  (5)
	aux2 : aux2 . stmt  (6)

	NEWLINE  shift 41
	IDENTIFIER  shift 2
	ENTERO  shift 3
	REAL  shift 4
	CADENA  shift 5
	BOOLEAN  shift 6
	PRINT  shift 7
	MAS  shift 8
	MENOS  shift 9
	PI  shift 10
	IF  shift 11
	WHILE  shift 12
	NOT  shift 13
	$end  reduce 2

	stmt  goto 42
	simple_stmt  goto 17
	compound_stmt  goto 18
	small_stmt  goto 19
	expr_stmt  goto 20
	print_stmt  goto 21
	test  goto 22
	if_stmt  goto 23
	while_stmt  goto 24
	or_test  goto 25
	and_test  goto 26
	not_test  goto 27
	comparison  goto 28
	expr  goto 29
	term  goto 30
	factor  goto 31
	power  goto 32
	atom  goto 33


state 16
	aux2 : stmt .  (4)

	.  reduce 4


state 17
	stmt : simple_stmt .  (7)

	.  reduce 7


state 18
	stmt : compound_stmt .  (8)

	.  reduce 8


state 19
	simple_stmt : small_stmt . NEWLINE  (9)
	simple_stmt : small_stmt . PYCOMA NEWLINE  (10)

	NEWLINE  shift 43
	PYCOMA  shift 44
	.  error


state 20
	small_stmt : expr_stmt .  (11)

	.  reduce 11


state 21
	small_stmt : print_stmt .  (12)

	.  reduce 12


state 22
	expr_stmt : test .  (13)
	expr_stmt : test . EQ test  (14)
	expr_stmt : test . augassign test  (15)

	EQ  shift 45
	MASIGUAL  shift 46
	MENOSIGUAL  shift 47
	NEWLINE  reduce 13
	PYCOMA  reduce 13

	augassign  goto 48


state 23
	compound_stmt : if_stmt .  (19)

	.  reduce 19


state 24
	compound_stmt : while_stmt .  (20)

	.  reduce 20


state 25
	test : or_test .  (31)

	.  reduce 31


state 26
	or_test : and_test .  (33)
	or_test : and_test . aux5  (34)

	OR  shift 49
	NEWLINE  reduce 33
	EQ  reduce 33
	MASIGUAL  reduce 33
	MENOSIGUAL  reduce 33
	PYCOMA  reduce 33
	DOSPUNTOS  reduce 33
	PD  reduce 33

	aux5  goto 50


state 27
	and_test : not_test .  (37)
	and_test : not_test . aux6  (38)

	AND  shift 51
	NEWLINE  reduce 37
	EQ  reduce 37
	MASIGUAL  reduce 37
	MENOSIGUAL  reduce 37
	PYCOMA  reduce 37
	DOSPUNTOS  reduce 37
	PD  reduce 37
	OR  reduce 37

	aux6  goto 52


state 28
	not_test : comparison .  (42)

	.  reduce 42


state 29
	comparison : expr .  (43)
	comparison : expr . aux7  (44)

	DISTINTO  shift 53
	IGUALIGUAL  shift 54
	MENORIGUAL  shift 55
	MAYORIGUAL  shift 56
	MENOR  shift 57
	MAYOR  shift 58
	IN  shift 59
	NOTIN  shift 60
	NEWLINE  reduce 43
	EQ  reduce 43
	MASIGUAL  reduce 43
	MENOSIGUAL  reduce 43
	PYCOMA  reduce 43
	DOSPUNTOS  reduce 43
	PD  reduce 43
	OR  reduce 43
	AND  reduce 43

	aux7  goto 61
	comp_op  goto 62


state 30
	expr : term .  (55)
	expr : term . aux8  (56)

	MAS  shift 63
	MENOS  shift 64
	NEWLINE  reduce 55
	EQ  reduce 55
	MASIGUAL  reduce 55
	MENOSIGUAL  reduce 55
	DISTINTO  reduce 55
	IGUALIGUAL  reduce 55
	MENORIGUAL  reduce 55
	MAYORIGUAL  reduce 55
	MENOR  reduce 55
	MAYOR  reduce 55
	PYCOMA  reduce 55
	DOSPUNTOS  reduce 55
	PD  reduce 55
	IN  reduce 55
	OR  reduce 55
	AND  reduce 55
	NOTIN  reduce 55

	aux8  goto 65


state 31
	term : factor .  (61)
	term : factor . aux9  (62)

	POR  shift 66
	DIV  shift 67
	DIVENTERA  shift 68
	MODULO  shift 69
	NEWLINE  reduce 61
	MAS  reduce 61
	MENOS  reduce 61
	EQ  reduce 61
	MASIGUAL  reduce 61
	MENOSIGUAL  reduce 61
	DISTINTO  reduce 61
	IGUALIGUAL  reduce 61
	MENORIGUAL  reduce 61
	MAYORIGUAL  reduce 61
	MENOR  reduce 61
	MAYOR  reduce 61
	PYCOMA  reduce 61
	DOSPUNTOS  reduce 61
	PD  reduce 61
	IN  reduce 61
	OR  reduce 61
	AND  reduce 61
	NOTIN  reduce 61

	aux9  goto 70


state 32
	factor : power .  (73)

	.  reduce 73


state 33
	power : atom .  (74)
	power : atom . POTENCIA factor  (75)

	POTENCIA  shift 71
	NEWLINE  reduce 74
	MAS  reduce 74
	MENOS  reduce 74
	POR  reduce 74
	DIV  reduce 74
	DIVENTERA  reduce 74
	MODULO  reduce 74
	EQ  reduce 74
	MASIGUAL  reduce 74
	MENOSIGUAL  reduce 74
	DISTINTO  reduce 74
	IGUALIGUAL  reduce 74
	MENORIGUAL  reduce 74
	MAYORIGUAL  reduce 74
	MENOR  reduce 74
	MAYOR  reduce 74
	PYCOMA  reduce 74
	DOSPUNTOS  reduce 74
	PD  reduce 74
	IN  reduce 74
	OR  reduce 74
	AND  reduce 74
	NOTIN  reduce 74


state 34
	print_stmt : PRINT test .  (18)

	.  reduce 18


state 35
	factor : MAS factor .  (71)

	.  reduce 71


state 36
	factor : MENOS factor .  (72)

	.  reduce 72


state 37
	test : PI test . PD  (32)

	PD  shift 72
	.  error


state 38
	if_stmt : IF test . DOSPUNTOS suite  (21)
	if_stmt : IF test . DOSPUNTOS suite ELSE DOSPUNTOS suite  (22)
	if_stmt : IF test . DOSPUNTOS suite aux20 ELSE DOSPUNTOS suite  (23)

	DOSPUNTOS  shift 73
	.  error


state 39
	while_stmt : WHILE test . DOSPUNTOS suite  (26)

	DOSPUNTOS  shift 74
	.  error


state 40
	not_test : NOT not_test .  (41)

	.  reduce 41


state 41
	aux2 : aux2 NEWLINE .  (5)

	.  reduce 5


state 42
	aux2 : aux2 stmt .  (6)

	.  reduce 6


state 43
	simple_stmt : small_stmt NEWLINE .  (9)

	.  reduce 9


state 44
	simple_stmt : small_stmt PYCOMA . NEWLINE  (10)

	NEWLINE  shift 75
	.  error


state 45
	expr_stmt : test EQ . test  (14)

	IDENTIFIER  shift 2
	ENTERO  shift 3
	REAL  shift 4
	CADENA  shift 5
	BOOLEAN  shift 6
	MAS  shift 8
	MENOS  shift 9
	PI  shift 10
	NOT  shift 13
	.  error

	test  goto 76
	or_test  goto 25
	and_test  goto 26
	not_test  goto 27
	comparison  goto 28
	expr  goto 29
	term  goto 30
	factor  goto 31
	power  goto 32
	atom  goto 33


state 46
	augassign : MASIGUAL .  (16)

	.  reduce 16


state 47
	augassign : MENOSIGUAL .  (17)

	.  reduce 17


state 48
	expr_stmt : test augassign . test  (15)

	IDENTIFIER  shift 2
	ENTERO  shift 3
	REAL  shift 4
	CADENA  shift 5
	BOOLEAN  shift 6
	MAS  shift 8
	MENOS  shift 9
	PI  shift 10
	NOT  shift 13
	.  error

	test  goto 77
	or_test  goto 25
	and_test  goto 26
	not_test  goto 27
	comparison  goto 28
	expr  goto 29
	term  goto 30
	factor  goto 31
	power  goto 32
	atom  goto 33


state 49
	aux5 : OR . and_test  (35)

	IDENTIFIER  shift 2
	ENTERO  shift 3
	REAL  shift 4
	CADENA  shift 5
	BOOLEAN  shift 6
	MAS  shift 8
	MENOS  shift 9
	NOT  shift 13
	.  error

	and_test  goto 78
	not_test  goto 27
	comparison  goto 28
	expr  goto 29
	term  goto 30
	factor  goto 31
	power  goto 32
	atom  goto 33


state 50
	or_test : and_test aux5 .  (34)
	aux5 : aux5 . OR and_test  (36)

	OR  shift 79
	NEWLINE  reduce 34
	EQ  reduce 34
	MASIGUAL  reduce 34
	MENOSIGUAL  reduce 34
	PYCOMA  reduce 34
	DOSPUNTOS  reduce 34
	PD  reduce 34


state 51
	aux6 : AND . not_test  (39)

	IDENTIFIER  shift 2
	ENTERO  shift 3
	REAL  shift 4
	CADENA  shift 5
	BOOLEAN  shift 6
	MAS  shift 8
	MENOS  shift 9
	NOT  shift 13
	.  error

	not_test  goto 80
	comparison  goto 28
	expr  goto 29
	term  goto 30
	factor  goto 31
	power  goto 32
	atom  goto 33


state 52
	and_test : not_test aux6 .  (38)
	aux6 : aux6 . AND not_test  (40)

	AND  shift 81
	NEWLINE  reduce 38
	EQ  reduce 38
	MASIGUAL  reduce 38
	MENOSIGUAL  reduce 38
	PYCOMA  reduce 38
	DOSPUNTOS  reduce 38
	PD  reduce 38
	OR  reduce 38


state 53
	comp_op : DISTINTO .  (52)

	.  reduce 52


state 54
	comp_op : IGUALIGUAL .  (49)

	.  reduce 49


state 55
	comp_op : MENORIGUAL .  (51)

	.  reduce 51


state 56
	comp_op : MAYORIGUAL .  (50)

	.  reduce 50


state 57
	comp_op : MENOR .  (47)

	.  reduce 47


state 58
	comp_op : MAYOR .  (48)

	.  reduce 48


state 59
	comp_op : IN .  (53)

	.  reduce 53


state 60
	comp_op : NOTIN .  (54)

	.  reduce 54


state 61
	comparison : expr aux7 .  (44)

	.  reduce 44


state 62
	aux7 : comp_op . expr  (45)
	aux7 : comp_op . expr aux7  (46)

	IDENTIFIER  shift 2
	ENTERO  shift 3
	REAL  shift 4
	CADENA  shift 5
	BOOLEAN  shift 6
	MAS  shift 8
	MENOS  shift 9
	.  error

	expr  goto 82
	term  goto 30
	factor  goto 31
	power  goto 32
	atom  goto 33


state 63
	aux8 : MAS . term  (57)
	aux8 : MAS . term aux8  (59)

	IDENTIFIER  shift 2
	ENTERO  shift 3
	REAL  shift 4
	CADENA  shift 5
	BOOLEAN  shift 6
	MAS  shift 8
	MENOS  shift 9
	.  error

	term  goto 83
	factor  goto 31
	power  goto 32
	atom  goto 33


state 64
	aux8 : MENOS . term  (58)
	aux8 : MENOS . term aux8  (60)

	IDENTIFIER  shift 2
	ENTERO  shift 3
	REAL  shift 4
	CADENA  shift 5
	BOOLEAN  shift 6
	MAS  shift 8
	MENOS  shift 9
	.  error

	term  goto 84
	factor  goto 31
	power  goto 32
	atom  goto 33


state 65
	expr : term aux8 .  (56)

	.  reduce 56


state 66
	aux9 : POR . factor  (63)

	IDENTIFIER  shift 2
	ENTERO  shift 3
	REAL  shift 4
	CADENA  shift 5
	BOOLEAN  shift 6
	MAS  shift 8
	MENOS  shift 9
	.  error

	factor  goto 85
	power  goto 32
	atom  goto 33


state 67
	aux9 : DIV . factor  (66)

	IDENTIFIER  shift 2
	ENTERO  shift 3
	REAL  shift 4
	CADENA  shift 5
	BOOLEAN  shift 6
	MAS  shift 8
	MENOS  shift 9
	.  error

	factor  goto 86
	power  goto 32
	atom  goto 33


state 68
	aux9 : DIVENTERA . factor  (64)

	IDENTIFIER  shift 2
	ENTERO  shift 3
	REAL  shift 4
	CADENA  shift 5
	BOOLEAN  shift 6
	MAS  shift 8
	MENOS  shift 9
	.  error

	factor  goto 87
	power  goto 32
	atom  goto 33


state 69
	aux9 : MODULO . factor  (65)

	IDENTIFIER  shift 2
	ENTERO  shift 3
	REAL  shift 4
	CADENA  shift 5
	BOOLEAN  shift 6
	MAS  shift 8
	MENOS  shift 9
	.  error

	factor  goto 88
	power  goto 32
	atom  goto 33


state 70
	term : factor aux9 .  (62)
	aux9 : aux9 . POR factor  (67)
	aux9 : aux9 . DIVENTERA factor  (68)
	aux9 : aux9 . MODULO factor  (69)
	aux9 : aux9 . DIV factor  (70)

	POR  shift 89
	DIV  shift 90
	DIVENTERA  shift 91
	MODULO  shift 92
	NEWLINE  reduce 62
	MAS  reduce 62
	MENOS  reduce 62
	EQ  reduce 62
	MASIGUAL  reduce 62
	MENOSIGUAL  reduce 62
	DISTINTO  reduce 62
	IGUALIGUAL  reduce 62
	MENORIGUAL  reduce 62
	MAYORIGUAL  reduce 62
	MENOR  reduce 62
	MAYOR  reduce 62
	PYCOMA  reduce 62
	DOSPUNTOS  reduce 62
	PD  reduce 62
	IN  reduce 62
	OR  reduce 62
	AND  reduce 62
	NOTIN  reduce 62


state 71
	power : atom POTENCIA . factor  (75)

	IDENTIFIER  shift 2
	ENTERO  shift 3
	REAL  shift 4
	CADENA  shift 5
	BOOLEAN  shift 6
	MAS  shift 8
	MENOS  shift 9
	.  error

	factor  goto 93
	power  goto 32
	atom  goto 33


state 72
	test : PI test PD .  (32)

	.  reduce 32


state 73
	if_stmt : IF test DOSPUNTOS . suite  (21)
	if_stmt : IF test DOSPUNTOS . suite ELSE DOSPUNTOS suite  (22)
	if_stmt : IF test DOSPUNTOS . suite aux20 ELSE DOSPUNTOS suite  (23)

	NEWLINE  shift 94
	IDENTIFIER  shift 2
	ENTERO  shift 3
	REAL  shift 4
	CADENA  shift 5
	BOOLEAN  shift 6
	PRINT  shift 7
	MAS  shift 8
	MENOS  shift 9
	PI  shift 10
	NOT  shift 13
	.  error

	simple_stmt  goto 95
	small_stmt  goto 19
	expr_stmt  goto 20
	print_stmt  goto 21
	test  goto 22
	suite  goto 96
	or_test  goto 25
	and_test  goto 26
	not_test  goto 27
	comparison  goto 28
	expr  goto 29
	term  goto 30
	factor  goto 31
	power  goto 32
	atom  goto 33


state 74
	while_stmt : WHILE test DOSPUNTOS . suite  (26)

	NEWLINE  shift 94
	IDENTIFIER  shift 2
	ENTERO  shift 3
	REAL  shift 4
	CADENA  shift 5
	BOOLEAN  shift 6
	PRINT  shift 7
	MAS  shift 8
	MENOS  shift 9
	PI  shift 10
	NOT  shift 13
	.  error

	simple_stmt  goto 95
	small_stmt  goto 19
	expr_stmt  goto 20
	print_stmt  goto 21
	test  goto 22
	suite  goto 97
	or_test  goto 25
	and_test  goto 26
	not_test  goto 27
	comparison  goto 28
	expr  goto 29
	term  goto 30
	factor  goto 31
	power  goto 32
	atom  goto 33


state 75
	simple_stmt : small_stmt PYCOMA NEWLINE .  (10)

	.  reduce 10


state 76
	expr_stmt : test EQ test .  (14)

	.  reduce 14


state 77
	expr_stmt : test augassign test .  (15)

	.  reduce 15


state 78
	aux5 : OR and_test .  (35)

	.  reduce 35


state 79
	aux5 : aux5 OR . and_test  (36)

	IDENTIFIER  shift 2
	ENTERO  shift 3
	REAL  shift 4
	CADENA  shift 5
	BOOLEAN  shift 6
	MAS  shift 8
	MENOS  shift 9
	NOT  shift 13
	.  error

	and_test  goto 98
	not_test  goto 27
	comparison  goto 28
	expr  goto 29
	term  goto 30
	factor  goto 31
	power  goto 32
	atom  goto 33


state 80
	aux6 : AND not_test .  (39)

	.  reduce 39


state 81
	aux6 : aux6 AND . not_test  (40)

	IDENTIFIER  shift 2
	ENTERO  shift 3
	REAL  shift 4
	CADENA  shift 5
	BOOLEAN  shift 6
	MAS  shift 8
	MENOS  shift 9
	NOT  shift 13
	.  error

	not_test  goto 99
	comparison  goto 28
	expr  goto 29
	term  goto 30
	factor  goto 31
	power  goto 32
	atom  goto 33


state 82
	aux7 : comp_op expr .  (45)
	aux7 : comp_op expr . aux7  (46)

	DISTINTO  shift 53
	IGUALIGUAL  shift 54
	MENORIGUAL  shift 55
	MAYORIGUAL  shift 56
	MENOR  shift 57
	MAYOR  shift 58
	IN  shift 59
	NOTIN  shift 60
	NEWLINE  reduce 45
	EQ  reduce 45
	MASIGUAL  reduce 45
	MENOSIGUAL  reduce 45
	PYCOMA  reduce 45
	DOSPUNTOS  reduce 45
	PD  reduce 45
	OR  reduce 45
	AND  reduce 45

	aux7  goto 100
	comp_op  goto 62


state 83
	aux8 : MAS term .  (57)
	aux8 : MAS term . aux8  (59)

	MAS  shift 63
	MENOS  shift 64
	NEWLINE  reduce 57
	EQ  reduce 57
	MASIGUAL  reduce 57
	MENOSIGUAL  reduce 57
	DISTINTO  reduce 57
	IGUALIGUAL  reduce 57
	MENORIGUAL  reduce 57
	MAYORIGUAL  reduce 57
	MENOR  reduce 57
	MAYOR  reduce 57
	PYCOMA  reduce 57
	DOSPUNTOS  reduce 57
	PD  reduce 57
	IN  reduce 57
	OR  reduce 57
	AND  reduce 57
	NOTIN  reduce 57

	aux8  goto 101


state 84
	aux8 : MENOS term .  (58)
	aux8 : MENOS term . aux8  (60)

	MAS  shift 63
	MENOS  shift 64
	NEWLINE  reduce 58
	EQ  reduce 58
	MASIGUAL  reduce 58
	MENOSIGUAL  reduce 58
	DISTINTO  reduce 58
	IGUALIGUAL  reduce 58
	MENORIGUAL  reduce 58
	MAYORIGUAL  reduce 58
	MENOR  reduce 58
	MAYOR  reduce 58
	PYCOMA  reduce 58
	DOSPUNTOS  reduce 58
	PD  reduce 58
	IN  reduce 58
	OR  reduce 58
	AND  reduce 58
	NOTIN  reduce 58

	aux8  goto 102


state 85
	aux9 : POR factor .  (63)

	.  reduce 63


state 86
	aux9 : DIV factor .  (66)

	.  reduce 66


state 87
	aux9 : DIVENTERA factor .  (64)

	.  reduce 64


state 88
	aux9 : MODULO factor .  (65)

	.  reduce 65


state 89
	aux9 : aux9 POR . factor  (67)

	IDENTIFIER  shift 2
	ENTERO  shift 3
	REAL  shift 4
	CADENA  shift 5
	BOOLEAN  shift 6
	MAS  shift 8
	MENOS  shift 9
	.  error

	factor  goto 103
	power  goto 32
	atom  goto 33


state 90
	aux9 : aux9 DIV . factor  (70)

	IDENTIFIER  shift 2
	ENTERO  shift 3
	REAL  shift 4
	CADENA  shift 5
	BOOLEAN  shift 6
	MAS  shift 8
	MENOS  shift 9
	.  error

	factor  goto 104
	power  goto 32
	atom  goto 33


state 91
	aux9 : aux9 DIVENTERA . factor  (68)

	IDENTIFIER  shift 2
	ENTERO  shift 3
	REAL  shift 4
	CADENA  shift 5
	BOOLEAN  shift 6
	MAS  shift 8
	MENOS  shift 9
	.  error

	factor  goto 105
	power  goto 32
	atom  goto 33


state 92
	aux9 : aux9 MODULO . factor  (69)

	IDENTIFIER  shift 2
	ENTERO  shift 3
	REAL  shift 4
	CADENA  shift 5
	BOOLEAN  shift 6
	MAS  shift 8
	MENOS  shift 9
	.  error

	factor  goto 106
	power  goto 32
	atom  goto 33


state 93
	power : atom POTENCIA factor .  (75)

	.  reduce 75


state 94
	suite : NEWLINE . INDENT aux00 DEDENT  (28)

	INDENT  shift 107
	.  error


state 95
	suite : simple_stmt .  (27)

	.  reduce 27


state 96
	if_stmt : IF test DOSPUNTOS suite .  (21)
	if_stmt : IF test DOSPUNTOS suite . ELSE DOSPUNTOS suite  (22)
	if_stmt : IF test DOSPUNTOS suite . aux20 ELSE DOSPUNTOS suite  (23)

	ELIF  shift 108
	ELSE  shift 109
	$end  reduce 21
	NEWLINE  reduce 21
	IDENTIFIER  reduce 21
	ENTERO  reduce 21
	REAL  reduce 21
	CADENA  reduce 21
	BOOLEAN  reduce 21
	PRINT  reduce 21
	DEDENT  reduce 21
	MAS  reduce 21
	MENOS  reduce 21
	PI  reduce 21
	IF  reduce 21
	WHILE  reduce 21
	NOT  reduce 21

	aux20  goto 110


state 97
	while_stmt : WHILE test DOSPUNTOS suite .  (26)

	.  reduce 26


state 98
	aux5 : aux5 OR and_test .  (36)

	.  reduce 36


state 99
	aux6 : aux6 AND not_test .  (40)

	.  reduce 40


state 100
	aux7 : comp_op expr aux7 .  (46)

	.  reduce 46


state 101
	aux8 : MAS term aux8 .  (59)

	.  reduce 59


state 102
	aux8 : MENOS term aux8 .  (60)

	.  reduce 60


state 103
	aux9 : aux9 POR factor .  (67)

	.  reduce 67


state 104
	aux9 : aux9 DIV factor .  (70)

	.  reduce 70


state 105
	aux9 : aux9 DIVENTERA factor .  (68)

	.  reduce 68


state 106
	aux9 : aux9 MODULO factor .  (69)

	.  reduce 69


state 107
	suite : NEWLINE INDENT . aux00 DEDENT  (28)

	IDENTIFIER  shift 2
	ENTERO  shift 3
	REAL  shift 4
	CADENA  shift 5
	BOOLEAN  shift 6
	PRINT  shift 7
	MAS  shift 8
	MENOS  shift 9
	PI  shift 10
	IF  shift 11
	WHILE  shift 12
	NOT  shift 13
	.  error

	stmt  goto 111
	simple_stmt  goto 17
	compound_stmt  goto 18
	small_stmt  goto 19
	expr_stmt  goto 20
	print_stmt  goto 21
	test  goto 22
	if_stmt  goto 23
	while_stmt  goto 24
	aux00  goto 112
	or_test  goto 25
	and_test  goto 26
	not_test  goto 27
	comparison  goto 28
	expr  goto 29
	term  goto 30
	factor  goto 31
	power  goto 32
	atom  goto 33


state 108
	aux20 : ELIF . test DOSPUNTOS suite  (24)
	aux20 : ELIF . test DOSPUNTOS suite aux20  (25)

	IDENTIFIER  shift 2
	ENTERO  shift 3
	REAL  shift 4
	CADENA  shift 5
	BOOLEAN  shift 6
	MAS  shift 8
	MENOS  shift 9
	PI  shift 10
	NOT  shift 13
	.  error

	test  goto 113
	or_test  goto 25
	and_test  goto 26
	not_test  goto 27
	comparison  goto 28
	expr  goto 29
	term  goto 30
	factor  goto 31
	power  goto 32
	atom  goto 33


state 109
	if_stmt : IF test DOSPUNTOS suite ELSE . DOSPUNTOS suite  (22)

	DOSPUNTOS  shift 114
	.  error


state 110
	if_stmt : IF test DOSPUNTOS suite aux20 . ELSE DOSPUNTOS suite  (23)

	ELSE  shift 115
	.  error


state 111
	aux00 : stmt .  (29)

	.  reduce 29


state 112
	suite : NEWLINE INDENT aux00 . DEDENT  (28)
	aux00 : aux00 . stmt  (30)

	IDENTIFIER  shift 2
	ENTERO  shift 3
	REAL  shift 4
	CADENA  shift 5
	BOOLEAN  shift 6
	PRINT  shift 7
	DEDENT  shift 116
	MAS  shift 8
	MENOS  shift 9
	PI  shift 10
	IF  shift 11
	WHILE  shift 12
	NOT  shift 13
	.  error

	stmt  goto 117
	simple_stmt  goto 17
	compound_stmt  goto 18
	small_stmt  goto 19
	expr_stmt  goto 20
	print_stmt  goto 21
	test  goto 22
	if_stmt  goto 23
	while_stmt  goto 24
	or_test  goto 25
	and_test  goto 26
	not_test  goto 27
	comparison  goto 28
	expr  goto 29
	term  goto 30
	factor  goto 31
	power  goto 32
	atom  goto 33


state 113
	aux20 : ELIF test . DOSPUNTOS suite  (24)
	aux20 : ELIF test . DOSPUNTOS suite aux20  (25)

	DOSPUNTOS  shift 118
	.  error


state 114
	if_stmt : IF test DOSPUNTOS suite ELSE DOSPUNTOS . suite  (22)

	NEWLINE  shift 94
	IDENTIFIER  shift 2
	ENTERO  shift 3
	REAL  shift 4
	CADENA  shift 5
	BOOLEAN  shift 6
	PRINT  shift 7
	MAS  shift 8
	MENOS  shift 9
	PI  shift 10
	NOT  shift 13
	.  error

	simple_stmt  goto 95
	small_stmt  goto 19
	expr_stmt  goto 20
	print_stmt  goto 21
	test  goto 22
	suite  goto 119
	or_test  goto 25
	and_test  goto 26
	not_test  goto 27
	comparison  goto 28
	expr  goto 29
	term  goto 30
	factor  goto 31
	power  goto 32
	atom  goto 33


state 115
	if_stmt : IF test DOSPUNTOS suite aux20 ELSE . DOSPUNTOS suite  (23)

	DOSPUNTOS  shift 120
	.  error


state 116
	suite : NEWLINE INDENT aux00 DEDENT .  (28)

	.  reduce 28


state 117
	aux00 : aux00 stmt .  (30)

	.  reduce 30


state 118
	aux20 : ELIF test DOSPUNTOS . suite  (24)
	aux20 : ELIF test DOSPUNTOS . suite aux20  (25)

	NEWLINE  shift 94
	IDENTIFIER  shift 2
	ENTERO  shift 3
	REAL  shift 4
	CADENA  shift 5
	BOOLEAN  shift 6
	PRINT  shift 7
	MAS  shift 8
	MENOS  shift 9
	PI  shift 10
	NOT  shift 13
	.  error

	simple_stmt  goto 95
	small_stmt  goto 19
	expr_stmt  goto 20
	print_stmt  goto 21
	test  goto 22
	suite  goto 121
	or_test  goto 25
	and_test  goto 26
	not_test  goto 27
	comparison  goto 28
	expr  goto 29
	term  goto 30
	factor  goto 31
	power  goto 32
	atom  goto 33


state 119
	if_stmt : IF test DOSPUNTOS suite ELSE DOSPUNTOS suite .  (22)

	.  reduce 22


state 120
	if_stmt : IF test DOSPUNTOS suite aux20 ELSE DOSPUNTOS . suite  (23)

	NEWLINE  shift 94
	IDENTIFIER  shift 2
	ENTERO  shift 3
	REAL  shift 4
	CADENA  shift 5
	BOOLEAN  shift 6
	PRINT  shift 7
	MAS  shift 8
	MENOS  shift 9
	PI  shift 10
	NOT  shift 13
	.  error

	simple_stmt  goto 95
	small_stmt  goto 19
	expr_stmt  goto 20
	print_stmt  goto 21
	test  goto 22
	suite  goto 122
	or_test  goto 25
	and_test  goto 26
	not_test  goto 27
	comparison  goto 28
	expr  goto 29
	term  goto 30
	factor  goto 31
	power  goto 32
	atom  goto 33


state 121
	aux20 : ELIF test DOSPUNTOS suite .  (24)
	aux20 : ELIF test DOSPUNTOS suite . aux20  (25)

	ELIF  shift 108
	ELSE  reduce 24

	aux20  goto 123


state 122
	if_stmt : IF test DOSPUNTOS suite aux20 ELSE DOSPUNTOS suite .  (23)

	.  reduce 23


state 123
	aux20 : ELIF test DOSPUNTOS suite aux20 .  (25)

	.  reduce 25


43 terminals, 31 nonterminals
81 grammar rules, 124 states
